id:120; flightNumber:KX-120; from:Киев; to:Харьков; takeoffTime:05/08/2019 21-45; landingTime:05/08/2019 23-45; emptySeats:9
id:121; flightNumber:KZ-121; from:Киев; to:Запорожье; takeoffTime:05/08/2019 20-45; landingTime:05/08/2019 21-45; emptySeats:7
id:122; flightNumber:KO-122; from:Киев; to:Одесса; takeoffTime:05/08/2019 16-23; landingTime:05/08/2019 20-45; emptySeats:9
id:123; flightNumber:KL-123; from:Киев; to:Львов; takeoffTime:05/08/2019 23-45; landingTime:06/08/2019 04-45; emptySeats:7
id:124; flightNumber:KS-124; from:Киев; to:Сумы; takeoffTime:06/08/2019 06-45; landingTime:06/08/2019 08-45; emptySeats:9
id:125; flightNumber:KD-125; from:Киев; to:Донецк; takeoffTime:06/08/2019 12-45; landingTime:06/08/2019 15-45; emptySeats:9
id:126; flightNumber:KX-126; from:Киев; to:Харьков; takeoffTime:06/08/2019 21-45; landingTime:06/08/2019 23-45; emptySeats:10
id:127; flightNumber:KZ-127; from:Киев; to:Запорожье; takeoffTime:06/08/2019 20-45; landingTime:06/08/2019 21-45; emptySeats:10
id:128; flightNumber:KO-128; from:Киев; to:Одесса; takeoffTime:06/08/2019 16-23; landingTime:06/08/2019 20-45; emptySeats:10
id:129; flightNumber:KL-129; from:Киев; to:Львов; takeoffTime:06/08/2019 23-45; landingTime:07/08/2019 04-45; emptySeats:10
id:130; flightNumber:KS-130; from:Киев; to:Сумы; takeoffTime:07/08/2019 06-45; landingTime:07/08/2019 08-45; emptySeats:10
id:131; flightNumber:KD-131; from:Киев; to:Донецк; takeoffTime:07/08/2019 12-45; landingTime:07/08/2019 15-45; emptySeats:10
id:132; flightNumber:KX-132; from:Киев; to:Харьков; takeoffTime:07/08/2019 21-45; landingTime:07/08/2019 23-45; emptySeats:10
id:133; flightNumber:KZ-133; from:Киев; to:Запорожье; takeoffTime:07/08/2019 20-45; landingTime:07/08/2019 21-45; emptySeats:10
id:134; flightNumber:KO-134; from:Киев; to:Одесса; takeoffTime:07/08/2019 16-23; landingTime:07/08/2019 20-45; emptySeats:10
id:135; flightNumber:KL-135; from:Киев; to:Львов; takeoffTime:07/08/2019 23-45; landingTime:08/08/2019 04-45; emptySeats:10
id:136; flightNumber:KS-136; from:Киев; to:Сумы; takeoffTime:08/08/2019 06-45; landingTime:08/08/2019 08-45; emptySeats:10
id:137; flightNumber:KD-137; from:Киев; to:Донецк; takeoffTime:08/08/2019 12-45; landingTime:08/08/2019 15-45; emptySeats:10